id SEX ANASC STUDIO QUAL SETT	
2160221 1 1941 5 6 5
222511 1 1928 3 6 5
222621 1 1941 5 6 5
222631 2 1931 3 6 5
222632 1 1960 4 1 2
222661 1 1926 3 6 5
222662 2 1926 2 6 5
222721 2 1944 2 6 5
222722 1 1941 4 6 5
222731 1 1921 2 6 5
222732 2 1924 2 6 5
222741 2 1947 3 7 5
222742 1 1945 4 6 5
223531 2 1949 2 7 5
223532 1 1947 2 6 5
223533 2 1987 4 2 4
233701 1 1942 3 6 5
249241 2 1964 5 5 2
249242 1 1960 5 5 2
290061 1 1944 5 6 5
290062 2 1946 3 6 5
2940391 1 1940 2 6 5
2940392 2 1946 2 7 5
338651 1 1954 3 1 2
338652 2 1957 5 2 4
354581 1 1946 3 6 5
354582 2 1949 3 1 4
354981 1 1935 2 6 5
354982 2 1938 2 6 5
354983 1 1973 4 1 2
355001 1 1927 3 6 5
380141 2 1956 5 7 5
380142 1 1952 5 1 2
380143 2 1979 7 2 3
380144 2 1980 7 2 3
380145 1 1985 6 7 5
380161 2 1953 5 2 4
380181 1 1933 3 6 5
381061 1 1940 5 6 5
381062 2 1935 2 6 5
381121 2 1965 4 2 3
381122 1 1964 5 2 4
381181 1 1926 5 6 5
381211 1 1940 3 6 5
381212 2 1939 3 6 5
381213 2 1927 2 6 5
381281 2 1947 1 6 5
381351 1 1969 5 5 4
381531 1 1946 4 6 5
381532 2 1944 3 6 5
381533 1 1976 5 1 4
381534 2 1977 5 2 4
381535 2 1979 5 2 4
381601 1 1934 2 6 5
381602 2 1938 2 6 5
381691 1 1926 2 6 5
381692 2 1933 2 6 5
381771 1 1926 2 6 5
381772 2 1924 2 6 5
381831 1 1960 5 2 4
381832 2 1964 5 3 3
381833 2 1987 5 1 4
5052261 1 1945 2 6 5
5052263 2 1976 5 1 4
5052281 2 1953 5 2 3
5052381 1 1926 2 6 5
5052431 1 1946 4 5 3
5052432 2 1948 4 5 4
5052851 1 1934 2 6 5
5052852 1 1955 5 7 5
5053071 1 1943 3 6 5
5053221 1 1943 3 6 5
5053222 2 1944 2 6 5
5053341 2 1932 2 6 5
5053342 2 1971 2 1 2
5053661 2 1955 4 6 5
5053662 1 1955 3 1 2
5053741 2 1923 2 6 5
5053851 1 1973 3 1 2
5053852 2 1970 3 1 2
5053901 1 1964 7 3 4
5053902 2 1964 5 3 4
5054071 2 1933 2 6 5
5054161 1 1930 3 6 5
5054162 2 1933 2 6 5
5054171 1 1970 2 1 2
5054181 1 1939 3 6 5
5054182 2 1944 4 6 5
5054211 2 1954 3 6 5
5054241 1 1966 5 2 3
5054242 2 1970 5 2 4
5054251 2 1938 4 6 5
5054301 2 1959 3 7 5
5054302 1 1965 3 2 3
5054331 1 1937 5 4 4
5054361 2 1960 5 2 4
5054363 1 1973 7 2 4
5054391 1 1953 3 6 5
5054392 2 1953 3 5 1
5054393 1 1976 7 2 4
5054421 2 1920 2 6 5
5054531 1 1954 5 5 4
5054532 2 1955 3 5 4
5054541 2 1940 3 6 5
5054631 1 1935 3 6 5
5054632 2 1942 3 6 5
5054691 1 1960 5 5 4
5054692 2 1931 2 6 5
5054693 1 1965 5 5 4
5054771 1 1958 5 3 4
5054772 2 1967 5 2 4
5054861 2 1913 2 6 5
5054911 1 1929 2 6 5
5054921 1 1928 2 6 5
5054922 2 1929 2 6 5
5054931 2 1935 4 6 5
5054981 1 1932 2 6 5
5054982 2 1958 5 2 3
5055021 1 1932 2 6 5
5055022 2 1938 2 6 5
5129211 2 1953 7 2 3
5129212 1 1947 5 2 2
5129281 2 1944 3 6 5
5129282 1 1974 5 1 2
512971 1 1953 5 4 2
5134061 1 1956 7 4 4
5134062 2 1958 3 1 4
5134111 1 1966 5 3 3
5134211 2 1966 5 2 4
5134212 1 1964 3 2 4
6116991 2 1957 4 1 3
6201791 2 1963 4 1 2
6277971 1 1949 5 3 4
6277972 2 1951 3 6 5
6304351 2 1925 2 6 5
6305121 1 1937 4 6 5
6305123 1 1972 4 1 2
6383601 1 1946 7 2 3
6383951 1 1963 7 2 2
6383952 2 1967 7 2 3
6384141 2 1952 7 3 4
6384221 1 1932 4 6 5
6384231 1 1937 3 6 5
6384232 2 1946 5 7 5
6387181 2 1965 5 2 3
6387182 1 1963 4 4 4
6387691 2 1931 2 6 5
6387831 2 1965 5 2 3
6387832 1 1964 5 3 2
6395021 1 1944 5 6 5
6395023 1 1971 5 4 4
6395024 2 1976 5 2 4
6395091 1 1958 5 4 2
6395093 2 1982 2 2 4
6724721 1 1974 5 3 4
6724722 2 1979 5 2 4
6760481 1 1969 5 1 2
6760482 2 1975 5 7 5
6761771 2 1918 2 6 5
6762591 2 1927 2 6 5
6762611 1 1934 3 6 5
6762651 1 1973 5 1 4
6762652 2 1976 5 1 4
6765801 2 1926 2 6 5
6768581 1 1927 3 6 5
6768582 2 1931 2 6 5
6768601 2 1912 2 6 5
6769881 2 1909 2 6 5
6769901 2 1926 3 6 5
6778251 2 1927 2 6 5
6778261 1 1968 5 2 4
6778262 2 1970 5 7 5
6778811 2 1963 6 2 3
6809201 2 1969 3 1 2
6809202 1 1964 2 2 3
6812441 1 1966 3 1 2
6816911 1 1958 7 2 3
6816912 2 1961 5 2 3
6816916 2 1929 5 6 5
6820061 1 1936 5 6 5
6824131 1 1968 4 1 2
6825321 2 1947 7 6 5
6825322 1 1985 7 7 5
6830311 1 1941 3 6 5
6830312 2 1946 3 6 5
6831641 1 1966 4 2 3
6831642 2 1978 7 4 4
6838101 1 1928 2 6 5
6838102 2 1933 2 6 5
6841921 1 1974 5 2 2
6841922 2 1974 5 2 2
6845741 1 1949 3 6 5
6854231 1 1942 5 6 5
6854232 2 1949 7 6 5
6860731 1 1928 2 6 5
6860732 2 1929 2 6 5
6861831 2 1958 5 1 4
6861832 1 1957 5 1 4
6865871 1 1933 2 6 5
6865901 2 1954 5 6 5
6865902 1 1949 3 6 5
6865903 1 1985 5 1 2
6865961 2 1936 4 6 5
6866141 1 1942 2 6 5
6866142 2 1945 3 6 5
6871741 1 1957 3 1 2
6871742 2 1959 3 1 2
6871781 1 1949 5 5 3
6871791 1 1957 5 7 5
6871951 1 1966 3 1 2
6872451 2 1969 3 1 2
6872452 1 1958 2 1 2
6872471 1 1961 5 1 2
6872631 2 1971 7 3 3
6881941 1 1946 5 6 5
6881942 2 1946 7 2 3
6882771 1 1956 3 5 4
6882772 2 1961 3 5 4
6882773 1 1985 7 1 4
6882774 1 1944 2 6 5
7186001 2 1973 5 4 4
7186002 1 1974 5 5 4
7186101 1 1969 2 1 2
7186211 1 1959 3 1 4
7186212 2 1969 3 1 4
7186241 1 1949 3 1 2
7186451 1 1923 2 6 5
7186452 2 1935 2 6 5
7186741 1 1950 7 4 2
7186742 2 1956 7 4 3
7186745 2 1987 5 2 2
7189101 1 1937 5 6 5
7189102 2 1935 3 6 5
7217171 1 1966 5 2 4
7217172 2 1975 4 2 3
7217351 2 1924 5 6 5
7217471 1 1939 3 6 5
7217472 2 1942 3 6 5
7217681 2 1943 2 6 5
7217771 1 1957 5 3 2
7217772 2 1961 7 2 3
7258011 1 1962 5 2 3
7316561 2 1968 3 1 3
7316601 1 1959 4 5 4
7345461 1 1961 6 5 2
7345462 2 1966 3 1 4
7347011 1 1946 3 6 5
7347012 2 1953 3 1 2
7347013 2 1982 5 2 4
7347061 2 1944 3 6 5
7347062 2 1982 5 1 4
7347141 2 1962 3 7 5
7347281 1 1968 3 4 4
7347282 2 1972 4 5 4
7347331 2 1940 3 6 5
7347481 1 1922 2 6 5
7347531 2 1962 3 1 4
7347601 2 1923 2 6 5
7369171 1 1970 5 2 4
7369172 2 1977 5 2 3
7369174 2 2004 1 7 5
7369181 1 1937 4 6 5
7369182 2 1947 3 6 5
7369191 1 1935 3 6 5
7369211 1 1959 7 3 3
7369351 1 1968 5 2 4
7369352 2 1967 7 2 3
7369391 1 1935 2 6 5
7369481 1 1950 3 4 4
7369483 2 1921 3 6 5
7369571 1 1970 5 3 3
7369572 2 1971 7 2 4
8056501 1 1956 7 3 3
8056502 2 1959 5 2 4
8056571 1 1930 2 6 5
8056572 2 1929 2 7 5
8056621 1 1964 3 5 2
8056641 1 1942 7 6 5
8056642 2 1943 2 6 5
8056661 1 1940 4 6 5
8056681 2 1926 2 6 5
8056682 1 1942 2 6 5
8056691 1 1976 2 1 2
8056781 1 1945 3 6 5
8056911 1 1967 5 5 4
8056912 2 1970 5 2 2
8056931 2 1939 5 6 5
8056951 1 1930 2 6 5
8056952 2 1938 2 7 5
8057051 2 1926 2 6 5
8057141 1 1979 5 1 2
8060671 2 1931 2 6 5
8060691 1 1968 3 1 2
8060692 1 1966 3 1 2
8060741 1 1956 3 1 2
8060742 2 1958 3 1 4
8060743 1 1982 5 1 2
8060761 1 1947 4 6 5
8060762 2 1950 3 6 5
8060763 2 1925 2 6 5
8060881 1 1975 3 1 2
8060882 2 1972 5 1 2
8060931 1 1983 5 5 2
8060932 2 1984 3 1 2
8060941 1 1956 3 5 2
8060942 2 1971 3 5 2
8060943 2 1988 5 2 4
8060961 1 1963 3 1 2
8060962 2 1963 3 1 2
8061071 1 1970 7 7 5
8061072 2 1981 5 1 2
8061161 1 1953 3 1 2
8065561 2 1925 7 6 5
8065571 1 1939 3 6 5
8065601 1 1985 6 5 4
8065631 1 1976 5 1 2
8065632 2 1979 5 1 3
8065641 1 1962 5 5 4
8065642 2 1969 5 2 3
8065701 1 1951 4 6 5
8065702 2 1987 5 2 2
8065781 1 1939 3 5 4
8065782 2 1941 7 5 4
8065791 2 1922 2 6 5
8065831 1 1962 3 4 4
8065832 2 1970 5 4 4
8065851 1 1950 7 5 1
8065852 2 1957 5 5 1
8065861 2 1940 4 6 5
8065901 1 1950 5 2 3
8065902 2 1923 2 6 5
8065911 1 1972 7 3 3
8065912 2 1971 7 3 3
8065931 1 1957 7 3 3
8065971 1 1935 5 6 5
8065972 2 1966 5 2 3
8066011 2 1976 3 7 5
8066012 1 1969 3 1 2
8066031 2 1960 4 1 2
8066032 1 1987 5 2 2
8110941 2 1975 5 7 5
8110942 1 1969 5 2 3
8111131 2 1978 7 2 3
8111132 1 1969 7 3 3
8183451 1 1950 5 4 4
8183541 1 1978 5 1 2
8183781 1 1945 3 6 5
8183782 2 1942 2 6 5
8183801 1 1964 4 1 2
8183831 1 1971 7 4 2
8183832 2 1973 7 3 3
8183871 1 1981 5 2 3
8183961 1 1953 3 6 5
8183963 1 1979 4 1 2
8183964 2 1983 5 2 3
8183981 1 1971 7 4 4
8184021 1 1941 2 6 5
8184061 1 1959 5 5 1
8184062 2 1961 3 1 2
8184063 2 1990 3 1 4
8184071 1 1948 3 6 5
8184072 2 1965 3 1 4
8184073 2 1987 5 7 5
8184101 1 1973 5 2 3
8184102 2 1982 5 1 4
8196951 1 1966 4 1 2
8196952 2 1976 5 2 4
8196953 1 1926 2 6 5
8196954 2 1932 2 6 5
8196961 1 1963 5 1 4
8196962 2 1974 5 1 2
8197041 1 1970 4 1 2
8197081 1 1916 5 6 5
8197082 2 1927 5 6 5
8197111 1 1983 4 1 2
8197121 1 1934 2 6 5
8197161 2 1981 5 2 3
8197271 1 1933 2 6 5
8197301 1 1962 2 1 4
8197302 1 1987 2 1 2
8197351 1 1960 5 4 4
8197352 2 1963 5 2 3
8197441 1 1928 2 6 5
8197442 2 1937 2 6 5
8197501 2 1965 5 2 3
8197502 1 1961 4 1 3
8197611 1 1970 3 5 4
8197612 2 1966 4 1 2
8197631 1 1979 3 1 2
8225361 1 1967 3 2 3
8225362 2 1976 3 1 4
8225391 1 1962 4 2 4
8225392 2 1966 4 1 2
8225421 1 1969 5 1 2
8225422 2 1977 5 1 2
8225551 1 1956 3 5 2
8225552 2 1956 3 1 3
8225553 1 1983 5 4 2
8225554 2 1987 5 2 4
8225561 1 1933 2 6 5
8225562 2 1940 2 6 5
8225591 1 1949 5 6 5
8225621 2 1933 2 6 5
8225711 1 1953 3 3 2
8225712 2 1955 5 4 2
8225713 1 1982 5 1 1
8225714 2 1987 5 7 5
8225781 1 1968 3 4 2
8225821 1 1927 2 6 5
8225822 2 1933 2 6 5
8225891 1 1936 2 6 5
8230081 1 1969 3 1 2
8230082 2 1974 3 1 2
8230291 2 1941 3 7 5
8230381 2 1923 2 6 5
8230382 2 1947 4 1 2
8264411 1 1947 5 6 5
8264421 2 1929 7 6 5
8264451 1 1952 5 2 3
8264471 1 1970 3 1 2
8264561 1 1966 5 5 4
8264562 2 1972 7 2 4
8264601 1 1962 5 1 4
8264602 2 1966 5 2 4
8264741 1 1952 5 5 3
8264742 2 1955 4 2 4
8264821 1 1943 3 5 4
8264822 2 1944 3 7 5
8264891 1 1961 3 1 2
8264893 2 1987 5 1 4
8265001 1 1968 7 2 4
8265002 2 1969 7 2 2
8500081 2 1976 5 5 3
8500082 1 1980 5 2 2
